vorbiscomment.c:50:13:die	16	static
vorbiscomment.c:57:14:local_strdup	24	static
vorbiscomment.c:66:19:parse_vorbis_comment_field	40	static
vorbiscomment.c:104:19:set_vc_field	56	static
vorbiscomment.c:219:13:free_field	16	static
vorbiscomment.c:229:12:flac__vorbiscomment_add	56	static
