bitreader.c:131:20:crc16_update_block_	24	static
bitreader.c:153:19:bitreader_read_from_client_	24	static
bitmath.h:73:24:FLAC__clz_uint32.part.0	8	static
bitreader.c:236:18:FLAC__bitreader_new	0	static
bitreader.c:266:12:FLAC__bitreader_init	16	static
bitreader.c:282:6:FLAC__bitreader_free	8	static
bitreader.c:252:6:FLAC__bitreader_delete	8	static
bitreader.c:296:12:FLAC__bitreader_clear	0	static
bitreader.c:303:6:FLAC__bitreader_dump	48	static
bitreader.c:333:6:FLAC__bitreader_reset_read_crc16	8	static
bitreader.c:344:14:FLAC__bitreader_get_read_crc16	16	static
bitreader.c:364:19:FLAC__bitreader_is_consumed_byte_aligned	0	static
bitreader.c:369:17:FLAC__bitreader_bits_left_for_byte_alignment	0	static
bitreader.c:374:17:FLAC__bitreader_get_input_bits_unconsumed	0	static
bitreader.c:379:12:FLAC__bitreader_read_raw_uint32	24	static
bitreader.c:460:12:FLAC__bitreader_read_raw_int32	24	static
bitreader.c:473:12:FLAC__bitreader_read_raw_uint64	24	static
bitreader.c:494:19:FLAC__bitreader_read_uint32_little_endian	24	static
bitreader.c:554:12:FLAC__bitreader_skip_byte_block_aligned_no_crc	24	static
bitreader.c:519:12:FLAC__bitreader_skip_bits_no_crc	24	static
bitreader.c:589:12:FLAC__bitreader_read_byte_block_aligned_no_crc	24	static
bitreader.c:645:12:FLAC__bitreader_read_unary_unsigned	24	static
bitreader.c:724:12:FLAC__bitreader_read_rice_signed	24	static
bitreader.c:752:12:FLAC__bitreader_read_rice_signed_block	40	static
bitreader.c:976:12:FLAC__bitreader_read_utf8_uint32	40	static
bitreader.c:1031:12:FLAC__bitreader_read_utf8_uint64	40	static
