stream_encoder_framing.c:498:12:add_residual_partitioned_rice_	56	static
stream_encoder_framing.c:482:12:add_entropy_coding_method_	16	static
stream_encoder_framing.c:47:12:FLAC__add_metadata_block	48	static
stream_encoder_framing.c:220:12:FLAC__frame_add_header	32	static
stream_encoder_framing.c:367:12:FLAC__subframe_add_constant	24	static
stream_encoder_framing.c:380:12:FLAC__subframe_add_fixed	40	static
stream_encoder_framing.c:418:12:FLAC__subframe_add_lpc	40	static
stream_encoder_framing.c:464:12:FLAC__subframe_add_verbatim	24	static
