stream_decoder.c:3021:6:send_error_to_client_	4	static
stream_decoder.c:1220:6:set_defaults_	16	static
stream_decoder.c:3444:12:file_eof_callback_	8	static
stream_decoder.c:3385:31:file_read_callback_	16	static
stream_decoder.c:3429:33:file_length_callback_	96	static
stream_decoder.c:3414:31:file_tell_callback_	8	static
stream_decoder.c:3402:31:file_seek_callback_	8	static
stream_decoder.c:2782:12:read_residual_partitioned_rice_	56	static
stream_decoder.c:2843:12:read_callback_	24	static
alloc.h:199:21:safe_realloc_mul_2op_	24	static
stream_decoder.c:1324:12:find_metadata_	40	static
stream_decoder.c:2016:12:read_frame_	144	static
alloc.h:86:21:safe_malloc_add_2op_.constprop	0	static
stream_decoder.c:241:31:FLAC__stream_decoder_new	24	static
stream_decoder.c:475:40:FLAC__stream_decoder_init_ogg_stream	8	static
stream_decoder.c:628:21:FLAC__stream_decoder_finish	24	static
stream_decoder.c:304:15:FLAC__stream_decoder_delete	16	static
stream_decoder.c:693:21:FLAC__stream_decoder_set_ogg_serial_number	8	static
stream_decoder.c:710:21:FLAC__stream_decoder_set_md5_checking	8	static
stream_decoder.c:720:21:FLAC__stream_decoder_set_metadata_respond	8	static
stream_decoder.c:737:21:FLAC__stream_decoder_set_metadata_respond_application	24	static
stream_decoder.c:765:21:FLAC__stream_decoder_set_metadata_respond_all	8	static
stream_decoder.c:779:21:FLAC__stream_decoder_set_metadata_ignore	8	static
stream_decoder.c:796:21:FLAC__stream_decoder_set_metadata_ignore_application	16	static
stream_decoder.c:824:21:FLAC__stream_decoder_set_metadata_ignore_all	8	static
stream_decoder.c:836:35:FLAC__stream_decoder_get_state	8	static
stream_decoder.c:843:22:FLAC__stream_decoder_get_resolved_state_string	0	static
stream_decoder.c:848:21:FLAC__stream_decoder_get_md5_checking	8	static
stream_decoder.c:855:23:FLAC__stream_decoder_get_total_samples	8	static
stream_decoder.c:1961:12:frame_sync_	32	static
stream_decoder.c:862:19:FLAC__stream_decoder_get_channels	8	static
stream_decoder.c:869:34:FLAC__stream_decoder_get_channel_assignment	8	static
stream_decoder.c:876:19:FLAC__stream_decoder_get_bits_per_sample	8	static
stream_decoder.c:883:19:FLAC__stream_decoder_get_sample_rate	8	static
stream_decoder.c:890:19:FLAC__stream_decoder_get_blocksize	8	static
stream_decoder.c:918:21:FLAC__stream_decoder_flush	8	static
stream_decoder.c:944:21:FLAC__stream_decoder_reset	24	static
stream_decoder.c:336:38:init_stream_internal_.part.13	32	static
stream_decoder.c:503:38:init_FILE_internal_	48	static
stream_decoder.c:547:40:FLAC__stream_decoder_init_FILE	24	static
stream_decoder.c:559:40:FLAC__stream_decoder_init_ogg_FILE	24	static
stream_decoder.c:571:38:init_file_internal_	32	static
stream_decoder.c:604:40:FLAC__stream_decoder_init_file	24	static
stream_decoder.c:616:40:FLAC__stream_decoder_init_ogg_file	24	static
stream_decoder.c:447:40:FLAC__stream_decoder_init_stream	24	static
stream_decoder.c:1102:21:FLAC__stream_decoder_skip_single_frame	16	static
stream_decoder.c:1206:10:FLAC__stream_decoder_get_input_bytes_unconsumed	8	static
stream_decoder.c:897:21:FLAC__stream_decoder_get_decode_position	24	static
stream_decoder.c:1389:12:read_metadata_	240	static
stream_decoder.c:1004:21:FLAC__stream_decoder_process_single	16	static
stream_decoder.c:1041:21:FLAC__stream_decoder_process_until_end_of_metadata	8	static
stream_decoder.c:1068:21:FLAC__stream_decoder_process_until_end_of_stream	16	static
stream_decoder.c:1133:21:FLAC__stream_decoder_seek_absolute	128	static
stream_decoder.c:3451:7:get_client_data_from_decoder	0	static
