main.c:45:19:write_little_endian_uint16	16	static
main.c:53:19:write_little_endian_int16	16	static
main.c:58:19:write_little_endian_uint32	16	static
main.c:68:5:main	48	static
main.c:111:32:write_callback	48	static
main.c:175:6:metadata_callback	32	static
main.c:194:6:error_callback	24	static
