alloc.h:156:21:safe_realloc_	24	static
alloc.h:199:21:safe_realloc_mul_2op_	24	static
bitwriter.c:102:12:bitwriter_grow_	24	static
bitwriter.c:142:18:FLAC__bitwriter_new	16	static
bitwriter.c:149:6:FLAC__bitwriter_delete	16	static
bitwriter.c:163:12:FLAC__bitwriter_init	16	static
bitwriter.c:176:6:FLAC__bitwriter_free	16	static
bitwriter.c:187:6:FLAC__bitwriter_clear	16	static
bitwriter.c:192:6:FLAC__bitwriter_dump	40	static
bitwriter.c:216:12:FLAC__bitwriter_get_write_crc16	24	static
bitwriter.c:231:12:FLAC__bitwriter_get_write_crc8	24	static
bitwriter.c:246:12:FLAC__bitwriter_is_byte_aligned	16	static
bitwriter.c:251:10:FLAC__bitwriter_get_input_bits_unconsumed	16	static
bitwriter.c:256:12:FLAC__bitwriter_get_buffer	24	static
bitwriter.c:276:6:FLAC__bitwriter_release_buffer	16	static
bitwriter.c:284:19:FLAC__bitwriter_write_zeroes	40	static
bitwriter.c:322:26:FLAC__bitwriter_write_raw_uint32_nocheck	32	static
bitwriter.c:363:19:FLAC__bitwriter_write_raw_uint32	24	static
bitwriter.c:372:19:FLAC__bitwriter_write_raw_int32	24	static
bitwriter.c:381:19:FLAC__bitwriter_write_raw_uint64	32	static
bitwriter.c:393:19:FLAC__bitwriter_write_raw_uint32_little_endian	16	static
bitwriter.c:409:19:FLAC__bitwriter_write_byte_block	32	static
bitwriter.c:426:12:FLAC__bitwriter_write_unary_unsigned	16	static
bitwriter.c:436:10:FLAC__bitwriter_rice_bits	24	static
bitwriter.c:514:12:FLAC__bitwriter_write_rice_signed	48	static
bitwriter.c:542:12:FLAC__bitwriter_write_rice_signed_block	64	static
bitwriter.c:760:12:FLAC__bitwriter_write_utf8_uint32	24	static
bitwriter.c:807:12:FLAC__bitwriter_write_utf8_uint64	40	static
bitwriter.c:863:12:FLAC__bitwriter_zero_pad_to_byte_boundary	16	static
